<?xml version="1.0" encoding="UTF-8" standalone="no"?>
<svg
   xmlns:dc="http://purl.org/dc/elements/1.1/"
   xmlns:cc="http://creativecommons.org/ns#"
   xmlns:rdf="http://www.w3.org/1999/02/22-rdf-syntax-ns#"
   xmlns:svg="http://www.w3.org/2000/svg"
   xmlns="http://www.w3.org/2000/svg"
   xmlns:xlink="http://www.w3.org/1999/xlink"
   xmlns:sodipodi="http://sodipodi.sourceforge.net/DTD/sodipodi-0.dtd"
   xmlns:inkscape="http://www.inkscape.org/namespaces/inkscape"
   width="210mm"
   height="297mm"
   viewBox="0 0 210 297"
   version="1.1"
   id="svg8"
   sodipodi:docname="drawing.svg"
   inkscape:version="1.0.2 (1.0.2+r75+1)">
  <defs
     id="defs2">
    <marker
       style="overflow:visible;"
       id="Arrow1Send"
       refX="0.0"
       refY="0.0"
       orient="auto"
       inkscape:stockid="Arrow1Send"
       inkscape:isstock="true">
      <path
         transform="scale(0.2) rotate(180) translate(6,0)"
         style="fill-rule:evenodd;stroke:#000000;stroke-width:1pt;stroke-opacity:1;fill:#000000;fill-opacity:1"
         d="M 0.0,0.0 L 5.0,-5.0 L -12.5,0.0 L 5.0,5.0 L 0.0,0.0 z "
         id="path1287" />
    </marker>
    <marker
       style="overflow:visible;"
       id="Arrow1Lend"
       refX="0.0"
       refY="0.0"
       orient="auto"
       inkscape:stockid="Arrow1Lend"
       inkscape:isstock="true">
      <path
         transform="scale(0.8) rotate(180) translate(12.5,0)"
         style="fill-rule:evenodd;stroke:#000000;stroke-width:1pt;stroke-opacity:1;fill:#000000;fill-opacity:1"
         d="M 0.0,0.0 L 5.0,-5.0 L -12.5,0.0 L 5.0,5.0 L 0.0,0.0 z "
         id="path1275" />
    </marker>
    <marker
       style="overflow:visible"
       id="Arrow1Lstart"
       refX="0.0"
       refY="0.0"
       orient="auto"
       inkscape:stockid="Arrow1Lstart"
       inkscape:isstock="true">
      <path
         transform="scale(0.8) translate(12.5,0)"
         style="fill-rule:evenodd;stroke:#000000;stroke-width:1pt;stroke-opacity:1;fill:#000000;fill-opacity:1"
         d="M 0.0,0.0 L 5.0,-5.0 L -12.5,0.0 L 5.0,5.0 L 0.0,0.0 z "
         id="path1272" />
    </marker>
    <g
       id="g7462">
      <symbol
         overflow="visible"
         id="symbol6231">
        <path
           style="stroke:none;"
           d=""
           id="path8876" />
      </symbol>
      <symbol
         overflow="visible"
         id="symbol2438">
        <path
           style="stroke:none;"
           d="M 4.140625 -3.3125 C 4.234375 -3.546875 4.40625 -3.984375 5.0625 -3.984375 L 5.0625 -4.296875 C 4.828125 -4.28125 4.546875 -4.265625 4.3125 -4.265625 C 4.078125 -4.265625 3.625 -4.28125 3.453125 -4.296875 L 3.453125 -3.984375 C 3.8125 -3.984375 3.921875 -3.75 3.921875 -3.5625 C 3.921875 -3.46875 3.90625 -3.421875 3.875 -3.3125 L 2.84375 -0.78125 L 1.734375 -3.5625 C 1.671875 -3.6875 1.671875 -3.703125 1.671875 -3.734375 C 1.671875 -3.984375 2.0625 -3.984375 2.25 -3.984375 L 2.25 -4.296875 C 1.9375 -4.28125 1.390625 -4.265625 1.15625 -4.265625 C 0.890625 -4.265625 0.484375 -4.28125 0.1875 -4.296875 L 0.1875 -3.984375 C 0.8125 -3.984375 0.859375 -3.921875 0.984375 -3.625 L 2.421875 -0.078125 C 2.484375 0.0625 2.5 0.109375 2.625 0.109375 C 2.765625 0.109375 2.796875 0.015625 2.84375 -0.078125 Z M 4.140625 -3.3125 "
           id="path1114" />
      </symbol>
      <symbol
         overflow="visible"
         id="symbol644">
        <path
           style="stroke:none;"
           d=""
           id="path6959" />
      </symbol>
      <symbol
         overflow="visible"
         id="symbol2558">
        <path
           style="stroke:none;"
           d="M 2.328125 -4.4375 C 2.328125 -4.625 2.328125 -4.625 2.125 -4.625 C 1.671875 -4.1875 1.046875 -4.1875 0.765625 -4.1875 L 0.765625 -3.9375 C 0.921875 -3.9375 1.390625 -3.9375 1.765625 -4.125 L 1.765625 -0.578125 C 1.765625 -0.34375 1.765625 -0.25 1.078125 -0.25 L 0.8125 -0.25 L 0.8125 0 C 0.9375 0 1.796875 -0.03125 2.046875 -0.03125 C 2.265625 -0.03125 3.140625 0 3.296875 0 L 3.296875 -0.25 L 3.03125 -0.25 C 2.328125 -0.25 2.328125 -0.34375 2.328125 -0.578125 Z M 2.328125 -4.4375 "
           id="path7129" />
      </symbol>
    </g>
    <g
       id="g1271">
      <symbol
         overflow="visible"
         id="symbol5685">
        <path
           style="stroke:none;"
           d=""
           id="path7237" />
      </symbol>
      <symbol
         overflow="visible"
         id="symbol9590">
        <path
           style="stroke:none;"
           d="M 4.140625 -3.3125 C 4.234375 -3.546875 4.40625 -3.984375 5.0625 -3.984375 L 5.0625 -4.296875 C 4.828125 -4.28125 4.546875 -4.265625 4.3125 -4.265625 C 4.078125 -4.265625 3.625 -4.28125 3.453125 -4.296875 L 3.453125 -3.984375 C 3.8125 -3.984375 3.921875 -3.75 3.921875 -3.5625 C 3.921875 -3.46875 3.90625 -3.421875 3.875 -3.3125 L 2.84375 -0.78125 L 1.734375 -3.5625 C 1.671875 -3.6875 1.671875 -3.703125 1.671875 -3.734375 C 1.671875 -3.984375 2.0625 -3.984375 2.25 -3.984375 L 2.25 -4.296875 C 1.9375 -4.28125 1.390625 -4.265625 1.15625 -4.265625 C 0.890625 -4.265625 0.484375 -4.28125 0.1875 -4.296875 L 0.1875 -3.984375 C 0.8125 -3.984375 0.859375 -3.921875 0.984375 -3.625 L 2.421875 -0.078125 C 2.484375 0.0625 2.5 0.109375 2.625 0.109375 C 2.765625 0.109375 2.796875 0.015625 2.84375 -0.078125 Z M 4.140625 -3.3125 "
           id="path4644" />
      </symbol>
      <symbol
         overflow="visible"
         id="symbol8972">
        <path
           style="stroke:none;"
           d=""
           id="path3835" />
      </symbol>
      <symbol
         overflow="visible"
         id="symbol7033">
        <path
           style="stroke:none;"
           d="M 3.515625 -1.265625 L 3.28125 -1.265625 C 3.265625 -1.109375 3.1875 -0.703125 3.09375 -0.640625 C 3.046875 -0.59375 2.515625 -0.59375 2.40625 -0.59375 L 1.125 -0.59375 C 1.859375 -1.234375 2.109375 -1.4375 2.515625 -1.765625 C 3.03125 -2.171875 3.515625 -2.609375 3.515625 -3.265625 C 3.515625 -4.109375 2.78125 -4.625 1.890625 -4.625 C 1.03125 -4.625 0.4375 -4.015625 0.4375 -3.375 C 0.4375 -3.03125 0.734375 -2.984375 0.8125 -2.984375 C 0.96875 -2.984375 1.171875 -3.109375 1.171875 -3.359375 C 1.171875 -3.484375 1.125 -3.734375 0.765625 -3.734375 C 0.984375 -4.21875 1.453125 -4.375 1.78125 -4.375 C 2.484375 -4.375 2.84375 -3.828125 2.84375 -3.265625 C 2.84375 -2.65625 2.40625 -2.1875 2.1875 -1.9375 L 0.515625 -0.265625 C 0.4375 -0.203125 0.4375 -0.1875 0.4375 0 L 3.3125 0 Z M 3.515625 -1.265625 "
           id="path2481" />
      </symbol>
    </g>
    <g
       id="g6207">
      <symbol
         overflow="visible"
         id="symbol121">
        <path
           style="stroke:none;"
           d=""
           id="path39" />
      </symbol>
      <symbol
         overflow="visible"
         id="symbol1538">
        <path
           style="stroke:none;"
           d="M 4.140625 -3.3125 C 4.234375 -3.546875 4.40625 -3.984375 5.0625 -3.984375 L 5.0625 -4.296875 C 4.828125 -4.28125 4.546875 -4.265625 4.3125 -4.265625 C 4.078125 -4.265625 3.625 -4.28125 3.453125 -4.296875 L 3.453125 -3.984375 C 3.8125 -3.984375 3.921875 -3.75 3.921875 -3.5625 C 3.921875 -3.46875 3.90625 -3.421875 3.875 -3.3125 L 2.84375 -0.78125 L 1.734375 -3.5625 C 1.671875 -3.6875 1.671875 -3.703125 1.671875 -3.734375 C 1.671875 -3.984375 2.0625 -3.984375 2.25 -3.984375 L 2.25 -4.296875 C 1.9375 -4.28125 1.390625 -4.265625 1.15625 -4.265625 C 0.890625 -4.265625 0.484375 -4.28125 0.1875 -4.296875 L 0.1875 -3.984375 C 0.8125 -3.984375 0.859375 -3.921875 0.984375 -3.625 L 2.421875 -0.078125 C 2.484375 0.0625 2.5 0.109375 2.625 0.109375 C 2.765625 0.109375 2.796875 0.015625 2.84375 -0.078125 Z M 4.140625 -3.3125 "
           id="path2477" />
      </symbol>
      <symbol
         overflow="visible"
         id="symbol4080">
        <path
           style="stroke:none;"
           d=""
           id="path2351" />
      </symbol>
      <symbol
         overflow="visible"
         id="symbol314">
        <path
           style="stroke:none;"
           d="M 1.90625 -2.328125 C 2.453125 -2.328125 2.84375 -1.953125 2.84375 -1.203125 C 2.84375 -0.34375 2.328125 -0.078125 1.9375 -0.078125 C 1.65625 -0.078125 1.03125 -0.15625 0.75 -0.578125 C 1.078125 -0.578125 1.15625 -0.8125 1.15625 -0.96875 C 1.15625 -1.1875 0.984375 -1.34375 0.765625 -1.34375 C 0.578125 -1.34375 0.375 -1.21875 0.375 -0.9375 C 0.375 -0.28125 1.09375 0.140625 1.9375 0.140625 C 2.90625 0.140625 3.578125 -0.515625 3.578125 -1.203125 C 3.578125 -1.75 3.140625 -2.296875 2.375 -2.453125 C 3.09375 -2.71875 3.359375 -3.234375 3.359375 -3.671875 C 3.359375 -4.21875 2.734375 -4.625 1.953125 -4.625 C 1.1875 -4.625 0.59375 -4.25 0.59375 -3.6875 C 0.59375 -3.453125 0.75 -3.328125 0.953125 -3.328125 C 1.171875 -3.328125 1.3125 -3.484375 1.3125 -3.671875 C 1.3125 -3.875 1.171875 -4.03125 0.953125 -4.046875 C 1.203125 -4.34375 1.671875 -4.421875 1.9375 -4.421875 C 2.25 -4.421875 2.6875 -4.265625 2.6875 -3.671875 C 2.6875 -3.375 2.59375 -3.046875 2.40625 -2.84375 C 2.1875 -2.578125 1.984375 -2.5625 1.640625 -2.53125 C 1.46875 -2.515625 1.453125 -2.515625 1.421875 -2.515625 C 1.40625 -2.515625 1.34375 -2.5 1.34375 -2.421875 C 1.34375 -2.328125 1.40625 -2.328125 1.53125 -2.328125 Z M 1.90625 -2.328125 "
           id="path1161" />
      </symbol>
    </g>
    <g
       id="g2166">
      <symbol
         overflow="visible"
         id="symbol9592">
        <path
           style="stroke:none;"
           d=""
           id="path1493" />
      </symbol>
      <symbol
         overflow="visible"
         id="symbol9023">
        <path
           style="stroke:none;"
           d="M 1.109375 -2.515625 C 1.171875 -4 2.015625 -4.25 2.359375 -4.25 C 3.375 -4.25 3.484375 -2.90625 3.484375 -2.515625 Z M 1.109375 -2.296875 L 3.890625 -2.296875 C 4.109375 -2.296875 4.140625 -2.296875 4.140625 -2.515625 C 4.140625 -3.5 3.59375 -4.46875 2.359375 -4.46875 C 1.203125 -4.46875 0.28125 -3.4375 0.28125 -2.1875 C 0.28125 -0.859375 1.328125 0.109375 2.46875 0.109375 C 3.6875 0.109375 4.140625 -1 4.140625 -1.1875 C 4.140625 -1.28125 4.0625 -1.3125 4 -1.3125 C 3.921875 -1.3125 3.890625 -1.25 3.875 -1.171875 C 3.53125 -0.140625 2.625 -0.140625 2.53125 -0.140625 C 2.03125 -0.140625 1.640625 -0.4375 1.40625 -0.8125 C 1.109375 -1.28125 1.109375 -1.9375 1.109375 -2.296875 Z M 1.109375 -2.296875 "
           id="path919" />
      </symbol>
      <symbol
         overflow="visible"
         id="symbol3253">
        <path
           style="stroke:none;"
           d=""
           id="path899" />
      </symbol>
      <symbol
         overflow="visible"
         id="symbol8199">
        <path
           style="stroke:none;"
           d="M 1.90625 -2.328125 C 2.453125 -2.328125 2.84375 -1.953125 2.84375 -1.203125 C 2.84375 -0.34375 2.328125 -0.078125 1.9375 -0.078125 C 1.65625 -0.078125 1.03125 -0.15625 0.75 -0.578125 C 1.078125 -0.578125 1.15625 -0.8125 1.15625 -0.96875 C 1.15625 -1.1875 0.984375 -1.34375 0.765625 -1.34375 C 0.578125 -1.34375 0.375 -1.21875 0.375 -0.9375 C 0.375 -0.28125 1.09375 0.140625 1.9375 0.140625 C 2.90625 0.140625 3.578125 -0.515625 3.578125 -1.203125 C 3.578125 -1.75 3.140625 -2.296875 2.375 -2.453125 C 3.09375 -2.71875 3.359375 -3.234375 3.359375 -3.671875 C 3.359375 -4.21875 2.734375 -4.625 1.953125 -4.625 C 1.1875 -4.625 0.59375 -4.25 0.59375 -3.6875 C 0.59375 -3.453125 0.75 -3.328125 0.953125 -3.328125 C 1.171875 -3.328125 1.3125 -3.484375 1.3125 -3.671875 C 1.3125 -3.875 1.171875 -4.03125 0.953125 -4.046875 C 1.203125 -4.34375 1.671875 -4.421875 1.9375 -4.421875 C 2.25 -4.421875 2.6875 -4.265625 2.6875 -3.671875 C 2.6875 -3.375 2.59375 -3.046875 2.40625 -2.84375 C 2.1875 -2.578125 1.984375 -2.5625 1.640625 -2.53125 C 1.46875 -2.515625 1.453125 -2.515625 1.421875 -2.515625 C 1.40625 -2.515625 1.34375 -2.5 1.34375 -2.421875 C 1.34375 -2.328125 1.40625 -2.328125 1.53125 -2.328125 Z M 1.90625 -2.328125 "
           id="path6971" />
      </symbol>
    </g>
    <g
       id="g3957">
      <symbol
         overflow="visible"
         id="symbol779">
        <path
           style="stroke:none;"
           d=""
           id="path341" />
      </symbol>
      <symbol
         overflow="visible"
         id="symbol8154">
        <path
           style="stroke:none;"
           d="M 1.109375 -2.515625 C 1.171875 -4 2.015625 -4.25 2.359375 -4.25 C 3.375 -4.25 3.484375 -2.90625 3.484375 -2.515625 Z M 1.109375 -2.296875 L 3.890625 -2.296875 C 4.109375 -2.296875 4.140625 -2.296875 4.140625 -2.515625 C 4.140625 -3.5 3.59375 -4.46875 2.359375 -4.46875 C 1.203125 -4.46875 0.28125 -3.4375 0.28125 -2.1875 C 0.28125 -0.859375 1.328125 0.109375 2.46875 0.109375 C 3.6875 0.109375 4.140625 -1 4.140625 -1.1875 C 4.140625 -1.28125 4.0625 -1.3125 4 -1.3125 C 3.921875 -1.3125 3.890625 -1.25 3.875 -1.171875 C 3.53125 -0.140625 2.625 -0.140625 2.53125 -0.140625 C 2.03125 -0.140625 1.640625 -0.4375 1.40625 -0.8125 C 1.109375 -1.28125 1.109375 -1.9375 1.109375 -2.296875 Z M 1.109375 -2.296875 "
           id="path8059" />
      </symbol>
      <symbol
         overflow="visible"
         id="symbol4119">
        <path
           style="stroke:none;"
           d=""
           id="path4740" />
      </symbol>
      <symbol
         overflow="visible"
         id="symbol3291">
        <path
           style="stroke:none;"
           d="M 2.328125 -4.4375 C 2.328125 -4.625 2.328125 -4.625 2.125 -4.625 C 1.671875 -4.1875 1.046875 -4.1875 0.765625 -4.1875 L 0.765625 -3.9375 C 0.921875 -3.9375 1.390625 -3.9375 1.765625 -4.125 L 1.765625 -0.578125 C 1.765625 -0.34375 1.765625 -0.25 1.078125 -0.25 L 0.8125 -0.25 L 0.8125 0 C 0.9375 0 1.796875 -0.03125 2.046875 -0.03125 C 2.265625 -0.03125 3.140625 0 3.296875 0 L 3.296875 -0.25 L 3.03125 -0.25 C 2.328125 -0.25 2.328125 -0.34375 2.328125 -0.578125 Z M 2.328125 -4.4375 "
           id="path7585" />
      </symbol>
    </g>
    <marker
       style="overflow:visible"
       id="Arrow1Send-5"
       refX="0"
       refY="0"
       orient="auto"
       inkscape:stockid="Arrow1Send"
       inkscape:isstock="true">
      <path
         transform="matrix(-0.2,0,0,-0.2,-1.2,0)"
         style="fill:#000000;fill-opacity:1;fill-rule:evenodd;stroke:#000000;stroke-width:1pt;stroke-opacity:1"
         d="M 0,0 5,-5 -12.5,0 5,5 Z"
         id="path1287-3" />
    </marker>
    <marker
       style="overflow:visible"
       id="Arrow1Send-5-6"
       refX="0"
       refY="0"
       orient="auto"
       inkscape:stockid="Arrow1Send"
       inkscape:isstock="true">
      <path
         transform="matrix(-0.2,0,0,-0.2,-1.2,0)"
         style="fill:#000000;fill-opacity:1;fill-rule:evenodd;stroke:#000000;stroke-width:1pt;stroke-opacity:1"
         d="M 0,0 5,-5 -12.5,0 5,5 Z"
         id="path1287-3-2" />
    </marker>
    <marker
       style="overflow:visible"
       id="Arrow1Send-1"
       refX="0"
       refY="0"
       orient="auto"
       inkscape:stockid="Arrow1Send"
       inkscape:isstock="true">
      <path
         transform="matrix(-0.2,0,0,-0.2,-1.2,0)"
         style="fill:#000000;fill-opacity:1;fill-rule:evenodd;stroke:#000000;stroke-width:1pt;stroke-opacity:1"
         d="M 0,0 5,-5 -12.5,0 5,5 Z"
         id="path1287-2" />
    </marker>
    <marker
       style="overflow:visible"
       id="Arrow1Send-5-7"
       refX="0"
       refY="0"
       orient="auto"
       inkscape:stockid="Arrow1Send"
       inkscape:isstock="true">
      <path
         transform="matrix(-0.2,0,0,-0.2,-1.2,0)"
         style="fill:#000000;fill-opacity:1;fill-rule:evenodd;stroke:#000000;stroke-width:1pt;stroke-opacity:1"
         d="M 0,0 5,-5 -12.5,0 5,5 Z"
         id="path1287-3-0" />
    </marker>
    <marker
       style="overflow:visible"
       id="Arrow1Send-5-6-9"
       refX="0"
       refY="0"
       orient="auto"
       inkscape:stockid="Arrow1Send"
       inkscape:isstock="true">
      <path
         transform="matrix(-0.2,0,0,-0.2,-1.2,0)"
         style="fill:#000000;fill-opacity:1;fill-rule:evenodd;stroke:#000000;stroke-width:1pt;stroke-opacity:1"
         d="M 0,0 5,-5 -12.5,0 5,5 Z"
         id="path1287-3-2-3" />
    </marker>
  </defs>
  <sodipodi:namedview
     id="base"
     pagecolor="#ffffff"
     bordercolor="#666666"
     borderopacity="1.0"
     inkscape:pageopacity="0.0"
     inkscape:pageshadow="2"
     inkscape:zoom="0.7"
     inkscape:cx="264.64751"
     inkscape:cy="539.9118"
     inkscape:document-units="mm"
     inkscape:current-layer="layer1"
     inkscape:document-rotation="0"
     showgrid="false"
     inkscape:window-width="1514"
     inkscape:window-height="773"
     inkscape:window-x="146"
     inkscape:window-y="64"
     inkscape:window-maximized="0" />
  <metadata
     id="metadata5">
    <rdf:RDF>
      <cc:Work
         rdf:about="">
        <dc:format>image/svg+xml</dc:format>
        <dc:type
           rdf:resource="http://purl.org/dc/dcmitype/StillImage" />
        <dc:title />
      </cc:Work>
    </rdf:RDF>
  </metadata>
  <g
     inkscape:label="Layer 1"
     inkscape:groupmode="layer"
     id="layer1">
    <g
       id="g2556"
       transform="matrix(0.32162145,0,0,0.32162145,40.072218,39.342406)"
       inkscape:export-xdpi="300"
       inkscape:export-ydpi="300">
      <path
         style="fill:none;stroke:#000000;stroke-width:0.265;stroke-linecap:butt;stroke-linejoin:miter;stroke-miterlimit:4;stroke-dasharray:0.265, 0.53;stroke-dashoffset:0;stroke-opacity:1"
         d="M 66.708276,114.75511 113.09152,89.378149"
         id="path1138"
         inkscape:export-xdpi="300"
         inkscape:export-ydpi="300" />
      <path
         style="fill:none;stroke:#000000;stroke-width:0.265;stroke-linecap:butt;stroke-linejoin:miter;stroke-miterlimit:4;stroke-dasharray:0.265, 0.53;stroke-dashoffset:0;stroke-opacity:1"
         d="M 135.98644,113.28941 79.615193,88.722014"
         id="path1134"
         inkscape:export-xdpi="300"
         inkscape:export-ydpi="300" />
      <path
         style="fill:none;stroke:#000000;stroke-width:0.265;stroke-linecap:butt;stroke-linejoin:miter;stroke-miterlimit:4;stroke-dasharray:0.265, 0.53;stroke-dashoffset:0;stroke-opacity:1"
         d="M 90.462451,64.498576 103.23429,113.72059"
         id="path1136"
         inkscape:export-xdpi="300"
         inkscape:export-ydpi="300" />
      <path
         style="fill:none;stroke:#000000;stroke-width:0.75;stroke-linecap:butt;stroke-linejoin:miter;stroke-miterlimit:4;stroke-dasharray:none;stroke-opacity:1"
         d="m 90.462453,64.498576 -23.754177,50.256534 69.278164,-1.4657 z"
         id="path833"
         inkscape:export-xdpi="300"
         inkscape:export-ydpi="300" />
      <ellipse
         style="fill:#f50000;fill-opacity:1;stroke:none;stroke-width:0.445532;stroke-miterlimit:4;stroke-dasharray:none"
         id="path835"
         cx="90.527611"
         cy="64.384003"
         rx="1.7772341"
         ry="1.777234"
         inkscape:export-xdpi="300"
         inkscape:export-ydpi="300" />
      <ellipse
         style="fill:#f50000;fill-opacity:1;stroke:none;stroke-width:0.445532;stroke-miterlimit:4;stroke-dasharray:none"
         id="path835-3"
         cx="135.90656"
         cy="113.18864"
         rx="1.7772341"
         ry="1.777234"
         inkscape:export-xdpi="300"
         inkscape:export-ydpi="300" />
      <ellipse
         style="fill:#f50000;fill-opacity:1;stroke:none;stroke-width:0.445532;stroke-miterlimit:4;stroke-dasharray:none"
         id="path835-6"
         cx="66.817383"
         cy="114.39136"
         rx="1.7772341"
         ry="1.777234"
         inkscape:export-xdpi="300"
         inkscape:export-ydpi="300" />
      <g
         inkscape:label=""
         transform="matrix(0.69074151,0,0,0.69074151,75.914948,59.651214)"
         id="g887"
         inkscape:export-xdpi="300"
         inkscape:export-ydpi="300">
        <g
           id="g9836">
          <g
             style="fill:#000000;fill-opacity:1"
             id="g7787">
            <use
               xlink:href="#symbol2438"
               x="91.925003"
               y="81.962997"
               id="use8254"
               width="100%"
               height="100%" />
          </g>
          <g
             style="fill:#000000;fill-opacity:1"
             id="g5464">
            <use
               xlink:href="#symbol2558"
               x="97.182999"
               y="83.457001"
               id="use8365"
               width="100%"
               height="100%" />
          </g>
        </g>
      </g>
      <g
         inkscape:label=""
         transform="matrix(0.69074151,0,0,0.69074151,27.809929,4.3475519)"
         id="g942"
         inkscape:export-xdpi="300"
         inkscape:export-ydpi="300">
        <g
           id="g6370">
          <g
             style="fill:#000000;fill-opacity:1"
             id="g949">
            <use
               xlink:href="#symbol9590"
               x="91.925003"
               y="81.962997"
               id="use1884"
               width="100%"
               height="100%" />
          </g>
          <g
             style="fill:#000000;fill-opacity:1"
             id="g9537">
            <use
               xlink:href="#symbol7033"
               x="97.182999"
               y="83.457001"
               id="use1154"
               width="100%"
               height="100%" />
          </g>
        </g>
      </g>
      <g
         inkscape:label=""
         transform="matrix(0.6743653,0,0,0.6743653,-3.0468909,63.786983)"
         id="g1012"
         inkscape:export-xdpi="300"
         inkscape:export-ydpi="300">
        <g
           id="g2995">
          <g
             style="fill:#000000;fill-opacity:1"
             id="g5424">
            <use
               xlink:href="#symbol1538"
               x="91.925003"
               y="81.962997"
               id="use606"
               width="100%"
               height="100%" />
          </g>
          <g
             style="fill:#000000;fill-opacity:1"
             id="g2181">
            <use
               xlink:href="#symbol314"
               x="97.182999"
               y="83.457001"
               id="use1720"
               width="100%"
               height="100%" />
          </g>
        </g>
      </g>
      <ellipse
         style="fill:#000000;fill-opacity:1;stroke:none;stroke-width:0.445532;stroke-miterlimit:4;stroke-dasharray:none"
         id="path835-7"
         cx="98.889725"
         cy="97.018837"
         rx="1.7772341"
         ry="1.777234"
         inkscape:export-xdpi="300"
         inkscape:export-ydpi="300" />
      <g
         inkscape:label=""
         transform="matrix(0.67083104,0,0,0.67083104,36.878516,37.906405)"
         id="g1241"
         inkscape:export-xdpi="300"
         inkscape:export-ydpi="300">
        <g
           id="g346">
          <g
             style="fill:#000000;fill-opacity:1"
             id="g5054">
            <use
               xlink:href="#symbol8154"
               x="91.925003"
               y="81.962997"
               id="use7806"
               width="100%"
               height="100%" />
          </g>
          <g
             style="fill:#000000;fill-opacity:1"
             id="g2258">
            <use
               xlink:href="#symbol3291"
               x="96.352997"
               y="83.457001"
               id="use7951"
               width="100%"
               height="100%" />
          </g>
        </g>
      </g>
      <path
         id="path1262"
         style="fill:none;stroke:#000000;stroke-width:0.65;stroke-linecap:butt;stroke-linejoin:miter;stroke-miterlimit:4;stroke-dasharray:1.3, 0.65;stroke-dashoffset:0;stroke-opacity:1;marker-end:url(#Arrow1Send)"
         d="m 88.109369,66.48784 c -2.661168,2.88456 -3.289001,7.095818 -2.684324,10.857932 0.528334,3.531963 1.846083,6.894412 3.344329,10.115765 1.422698,2.715905 3.504193,5.098075 6.061865,6.798193"
         inkscape:export-xdpi="300"
         inkscape:export-ydpi="300" />
      <path
         id="path1262-5"
         style="fill:none;stroke:#000000;stroke-width:0.65;stroke-linecap:butt;stroke-linejoin:miter;stroke-miterlimit:4;stroke-dasharray:1.3, 0.65;stroke-dashoffset:0;stroke-opacity:1;marker-end:url(#Arrow1Send-5)"
         d="m 72.558734,119.10103 c 3.63044,1.49078 7.796903,0.61358 11.113319,-1.26271 3.127232,-1.72464 5.820784,-4.13032 8.319237,-6.6561 2.050896,-2.27903 3.559639,-5.05951 4.263236,-8.04901"
         inkscape:export-xdpi="300"
         inkscape:export-ydpi="300" />
      <path
         id="path1262-5-9"
         style="fill:none;stroke:#000000;stroke-width:0.65;stroke-linecap:butt;stroke-linejoin:miter;stroke-miterlimit:4;stroke-dasharray:1.3, 0.65;stroke-dashoffset:0;stroke-opacity:1;marker-end:url(#Arrow1Send-5-6)"
         d="m 133.84002,108.66918 c -0.50303,-3.89224 -3.32868,-7.07731 -6.60122,-9.029066 -3.04714,-1.862536 -6.47109,-3.011005 -9.90277,-3.930498 -2.99564,-0.652905 -6.15839,-0.586458 -9.10394,0.282961"
         inkscape:export-xdpi="300"
         inkscape:export-ydpi="300" />
    </g>
    <g
       id="g2647"
       transform="matrix(0.32975401,0,0,0.32975401,25.732228,120.67811)"
       inkscape:export-xdpi="300"
       inkscape:export-ydpi="300">
      <path
         style="fill:none;stroke:#000000;stroke-width:0.265;stroke-linecap:butt;stroke-linejoin:miter;stroke-miterlimit:4;stroke-dasharray:0.265, 0.53;stroke-dashoffset:0;stroke-opacity:1"
         d="M 46.029906,236.81082 92.41315,211.43386"
         id="path1138-6"
         inkscape:export-xdpi="300"
         inkscape:export-ydpi="300" />
      <path
         style="fill:none;stroke:#000000;stroke-width:0.265;stroke-linecap:butt;stroke-linejoin:miter;stroke-miterlimit:4;stroke-dasharray:0.265, 0.53;stroke-dashoffset:0;stroke-opacity:1"
         d="M 115.30807,235.34512 58.936823,210.77772"
         id="path1134-0"
         inkscape:export-xdpi="300"
         inkscape:export-ydpi="300" />
      <path
         style="fill:none;stroke:#000000;stroke-width:0.265;stroke-linecap:butt;stroke-linejoin:miter;stroke-miterlimit:4;stroke-dasharray:0.265, 0.53;stroke-dashoffset:0;stroke-opacity:1"
         d="M 69.784081,186.55429 82.55592,235.7763"
         id="path1136-6"
         inkscape:export-xdpi="300"
         inkscape:export-ydpi="300" />
      <path
         style="fill:none;stroke:#000000;stroke-width:0.75;stroke-linecap:butt;stroke-linejoin:miter;stroke-miterlimit:4;stroke-dasharray:none;stroke-opacity:1"
         d="m 69.784083,186.55429 -23.754177,50.25653 69.278164,-1.4657 z"
         id="path833-2"
         inkscape:export-xdpi="300"
         inkscape:export-ydpi="300" />
      <ellipse
         style="fill:#f50000;fill-opacity:1;stroke:none;stroke-width:0.445532;stroke-miterlimit:4;stroke-dasharray:none"
         id="path835-61"
         cx="69.849243"
         cy="186.43971"
         rx="1.7772341"
         ry="1.777234"
         inkscape:export-xdpi="300"
         inkscape:export-ydpi="300" />
      <ellipse
         style="fill:#f50000;fill-opacity:1;stroke:none;stroke-width:0.445532;stroke-miterlimit:4;stroke-dasharray:none"
         id="path835-3-8"
         cx="115.22819"
         cy="235.24435"
         rx="1.7772341"
         ry="1.777234"
         inkscape:export-xdpi="300"
         inkscape:export-ydpi="300" />
      <ellipse
         style="fill:#f50000;fill-opacity:1;stroke:none;stroke-width:0.445532;stroke-miterlimit:4;stroke-dasharray:none"
         id="path835-6-7"
         cx="46.139011"
         cy="236.44707"
         rx="1.7772341"
         ry="1.777234"
         inkscape:export-xdpi="300"
         inkscape:export-ydpi="300" />
      <g
         inkscape:label=""
         transform="matrix(0.69074151,0,0,0.69074151,55.236578,181.70692)"
         id="g887-9"
         inkscape:export-xdpi="300"
         inkscape:export-ydpi="300">
        <g
           id="g9836-2">
          <g
             style="fill:#000000;fill-opacity:1"
             id="g7787-0">
            <use
               xlink:href="#symbol2438"
               x="91.925003"
               y="81.962997"
               id="use8254-2"
               width="100%"
               height="100%" />
          </g>
          <g
             style="fill:#000000;fill-opacity:1"
             id="g5464-3">
            <use
               xlink:href="#symbol2558"
               x="97.182999"
               y="83.457001"
               id="use8365-7"
               width="100%"
               height="100%" />
          </g>
        </g>
      </g>
      <g
         inkscape:label=""
         transform="matrix(0.69074151,0,0,0.69074151,7.131559,126.40326)"
         id="g942-5"
         inkscape:export-xdpi="300"
         inkscape:export-ydpi="300">
        <g
           id="g6370-9">
          <g
             style="fill:#000000;fill-opacity:1"
             id="g949-2">
            <use
               xlink:href="#symbol9590"
               x="91.925003"
               y="81.962997"
               id="use1884-2"
               width="100%"
               height="100%" />
          </g>
          <g
             style="fill:#000000;fill-opacity:1"
             id="g9537-8">
            <use
               xlink:href="#symbol7033"
               x="97.182999"
               y="83.457001"
               id="use1154-9"
               width="100%"
               height="100%" />
          </g>
        </g>
      </g>
      <g
         inkscape:label=""
         transform="matrix(0.6743653,0,0,0.6743653,-23.725261,185.84269)"
         id="g1012-7"
         inkscape:export-xdpi="300"
         inkscape:export-ydpi="300">
        <g
           id="g2995-3">
          <g
             style="fill:#000000;fill-opacity:1"
             id="g5424-6">
            <use
               xlink:href="#symbol1538"
               x="91.925003"
               y="81.962997"
               id="use606-1"
               width="100%"
               height="100%" />
          </g>
          <g
             style="fill:#000000;fill-opacity:1"
             id="g2181-2">
            <use
               xlink:href="#symbol314"
               x="97.182999"
               y="83.457001"
               id="use1720-9"
               width="100%"
               height="100%" />
          </g>
        </g>
      </g>
      <ellipse
         style="fill:#000000;fill-opacity:1;stroke:none;stroke-width:0.445532;stroke-miterlimit:4;stroke-dasharray:none"
         id="path835-7-3"
         cx="78.211357"
         cy="219.07455"
         rx="1.7772341"
         ry="1.777234"
         inkscape:export-xdpi="300"
         inkscape:export-ydpi="300" />
      <g
         inkscape:label=""
         transform="matrix(0.67083104,0,0,0.67083104,16.200146,159.96211)"
         id="g1241-1"
         inkscape:export-xdpi="300"
         inkscape:export-ydpi="300">
        <g
           id="g346-9">
          <g
             style="fill:#000000;fill-opacity:1"
             id="g5054-4">
            <use
               xlink:href="#symbol8154"
               x="91.925003"
               y="81.962997"
               id="use7806-7"
               width="100%"
               height="100%" />
          </g>
          <g
             style="fill:#000000;fill-opacity:1"
             id="g2258-8">
            <use
               xlink:href="#symbol3291"
               x="96.352997"
               y="83.457001"
               id="use7951-4"
               width="100%"
               height="100%" />
          </g>
        </g>
      </g>
      <path
         id="path1262-50"
         style="fill:none;stroke:#000000;stroke-width:0.65;stroke-linecap:butt;stroke-linejoin:miter;stroke-miterlimit:4;stroke-dasharray:1.3, 0.65;stroke-dashoffset:0;stroke-opacity:1;marker-end:url(#Arrow1Send-1)"
         d="m 85.525762,212.77364 c 2.128156,-3.29749 2.025899,-7.55406 0.7862,-11.15715 -1.125089,-3.38941 -2.998929,-6.47668 -5.026452,-9.39405 -1.866572,-2.4323 -4.325095,-4.42303 -7.136024,-5.66028"
         inkscape:export-xdpi="300"
         inkscape:export-ydpi="300" />
      <path
         id="path1262-5-3"
         style="fill:none;stroke:#000000;stroke-width:0.65;stroke-linecap:butt;stroke-linejoin:miter;stroke-miterlimit:4;stroke-dasharray:1.3, 0.65;stroke-dashoffset:0;stroke-opacity:1;marker-end:url(#Arrow1Send-5-7)"
         d="m 72.068076,218.15276 c -3.44382,-1.88219 -7.681623,-1.46998 -11.184787,0.029 -3.298404,1.36912 -6.240907,3.46296 -9.002751,5.6977 -2.289798,2.03887 -4.096071,4.63593 -5.125172,7.52957"
         inkscape:export-xdpi="300"
         inkscape:export-ydpi="300" />
      <path
         id="path1262-5-9-6"
         style="fill:none;stroke:#000000;stroke-width:0.65;stroke-linecap:butt;stroke-linejoin:miter;stroke-miterlimit:4;stroke-dasharray:1.3, 0.65;stroke-dashoffset:0;stroke-opacity:1;marker-end:url(#Arrow1Send-5-6-9)"
         d="m 82.185679,225.03666 c 0.50303,3.89224 3.32868,7.07731 6.60122,9.02907 3.04714,1.86253 6.47109,3.011 9.902771,3.93049 2.99564,0.65291 6.15839,0.58646 9.10394,-0.28296"
         inkscape:export-xdpi="300"
         inkscape:export-ydpi="300" />
    </g>
  </g>
</svg>
